id,name,model_id:id,group_id:id,perm_read,perm_write,perm_create,perm_unlink
access_kg_division,access_kg_division,model_kg_division,base.group_user,1,1,1,1
access_kg_incoterm,access_kg_incoterm,model_kg_incoterm,base.group_user,1,1,1,1
access_lead_document,access_lead_document,model_lead_document,base.group_user,1,1,1,1
access_kg_sector,access_kg_sector,model_kg_sector,base.group_user,1,1,1,1
access_kg_packingtype,access_kg_packingtype,model_kg_packingtype,base.group_user,1,1,1,1
access_kg_portofloading,access_kg_portofloading,model_kg_portofloading,base.group_user,1,1,1,1
access_kg_agent,access_kg_agent,model_kg_agent,base.group_user,1,1,1,1
access_kg_shipment,access_kg_shipment,model_kg_shipment,base.group_user,1,1,1,1